{
  "type": "service_account",
  "project_id": "murniteguh-91a62",
  "private_key_id": "7a26b094a902fd36c95d3ccd02629bb96b060fdb",
  "private_key": "-----BEGIN PRIVATE KEY-----\nMIIEvAIBADANBgkqhkiG9w0BAQEFAASCBKYwggSiAgEAAoIBAQDGyE2AYhcMEu0n\nbR1lJG8aG7ZAE92WTqjZZQ5SJKYt3viB7gL8vg5ngQQtW8Ln8VC/D6eH6BthbmI0\n9T8MMQ19f6ml1D/LHJGgcx0JS1OEOmrru8DwrgD/b42yS7bzM/Ats1UMFLXJxAte\ntw9j3zS3jAu4otP4uFxL8KCOGXDdKgFvYr2/SGubxeXkQw8QSLKJnaaivsTxCwsK\neMFSdJSokMHcKCIw46Y6dYXCpInddKYJyic4uQ9yM7nzSR5e/EguL3dP28+ZmEM5\n5JaZVa+knVVG+rBS40QtCg2R4887UuEXHYmQa98flZQX4pM0JvO5yomaY7UElmFT\n5PukJj75AgMBAAECggEAAbX4neEF4R7cCNgmy8BHS/ei/97Rt7j0aBI3W7790j4Q\nh5BKWRwQu5SudDQ2M4scdzTdDsH6DZ+poVpqc/9Ft5ZLX88iP8k4wC7+5pIrE8xl\n0ot6itqoKlwXYYSYTeiLkphkZDhFl7eMoyN1MsT8bgdvN0zSATeXh8P4XQ3Qui0Y\nLF73T37xqlu8wEtGCc03s0u98FvZJ9l3sL5Kf5Pko0HQzg/UYDxdrQ6zswfPDeQy\nnqpDxp907rXPdLdrAsZVEUFaxCq4L/Pv06riAHvAEGXPt3LrvPMpJLvC5EnQPN39\n6V+k15PNlS9lHAt71ntzv3+UuuQyQk7ChxT+vnYgpwKBgQDko6QUiwCRzDzmf6K5\n7UvwA3rle3WwKMOQ3g7dF3rLz2qcbwT+VBU6SZj6eI4QFjuEdW2XLsA3WJr9XMFU\njb7FqELj+rEcE48GdwB4Fy1xfJw7xywmRw56NGGFyd+PGgmjgo2+o3T6s53C5U8Q\nj8s+YV+dad7ZASnIJ9WD7b+t6wKBgQDekf/fhSjFOpvTFfkJND3ouZfOibnmr/EK\nDk1P6ur/gw9NEj3Skg56Jgok4PkpuYi87NsIKFud80I4haEvIJKZN8Vo3bQvZDqP\nmyUMSnHEk8qqo2S0O1OaA04yJL0bFCoLgpFNzmg5R3Essvo4KW+NolSpgTIgQZhT\nmKsEBHt5qwKBgBTZNyUIZ8zjqsn56YS6tqn0J0i1sU2W6f5TwVc3xOLAzx/kn7fx\nQt5Fx8VPKOUeod66NnwKr0xcsAVaZ+al5jdv2GmhenTs86XLRCevNV2b10M8LjJv\nWEqcbCge+Fu8LBTU2sf/b7NMnZ4f+s2vzwCpMGbSOJfhG0Y9G6MkEs5xAoGAZ1mk\nV0aeB/ePJBWv7nYzyT1lIKMTj+tjIihB/jo3pS5WjJNL4duwnUfMrhNJn/ZnaFMT\n4lXbNR0gQt7KWffmGv+qy2cnpFoGV2jTa0GmUoHOOi5lNMvXpkyiouYsacaTP4UB\ns/+EphRmmTsCtdGH21zls1Aq1o+fDDJ4NwVd0MECgYBrmeqJU0hm/oWeg6h5yg97\nrwqLhGkeGzkj7zLQ7YVRsRzrUjgyolJMpBzOpKG1K1I0GGfM/U3xin2ZhW+oxXRR\nyAagV5+M9Oh5+tQbaUa9ncM1OngvHV1iPBLjcmjdcWWfCxDQ2ykHGMuCASw9EpN5\npqqW7Ijrx+QIuV9deSUMpA==\n-----END PRIVATE KEY-----\n",
  "client_email": "firebase-adminsdk-wtndo@murniteguh-91a62.iam.gserviceaccount.com",
  "client_id": "107849549184131839387",
  "auth_uri": "https://accounts.google.com/o/oauth2/auth",
  "token_uri": "https://accounts.google.com/o/oauth2/token",
  "auth_provider_x509_cert_url": "https://www.googleapis.com/oauth2/v1/certs",
  "client_x509_cert_url": "https://www.googleapis.com/robot/v1/metadata/x509/firebase-adminsdk-wtndo%40murniteguh-91a62.iam.gserviceaccount.com"
}
